%YAML 1.1
%TAG !u! tag:unity3d.com,2011:
--- !u!1001 &1454543994794630257
PrefabInstance:
  m_ObjectHideFlags: 0
  serializedVersion: 2
  m_Modification:
    m_TransformParent: {fileID: 0}
    m_Modifications:
    - target: {fileID: 5706578220384293708, guid: 666a9c8be436ff74c816affba760c42e, type: 3}
      propertyPath: m_LocalPosition.x
      value: 0
      objectReference: {fileID: 0}
    - target: {fileID: 5706578220384293708, guid: 666a9c8be436ff74c816affba760c42e, type: 3}
      propertyPath: m_LocalPosition.y
      value: 0
      objectReference: {fileID: 0}
    - target: {fileID: 5706578220384293708, guid: 666a9c8be436ff74c816affba760c42e, type: 3}
      propertyPath: m_LocalPosition.z
      value: 0
      objectReference: {fileID: 0}
    - target: {fileID: 5706578220384293708, guid: 666a9c8be436ff74c816affba760c42e, type: 3}
      propertyPath: m_LocalRotation.x
      value: 0
      objectReference: {fileID: 0}
    - target: {fileID: 5706578220384293708, guid: 666a9c8be436ff74c816affba760c42e, type: 3}
      propertyPath: m_LocalRotation.y
      value: 0
      objectReference: {fileID: 0}
    - target: {fileID: 5706578220384293708, guid: 666a9c8be436ff74c816affba760c42e, type: 3}
      propertyPath: m_LocalRotation.z
      value: 0
      objectReference: {fileID: 0}
    - target: {fileID: 5706578220384293708, guid: 666a9c8be436ff74c816affba760c42e, type: 3}
      propertyPath: m_LocalRotation.w
      value: 1
      objectReference: {fileID: 0}
    - target: {fileID: 5706578220384293708, guid: 666a9c8be436ff74c816affba760c42e, type: 3}
      propertyPath: m_RootOrder
      value: 0
      objectReference: {fileID: 0}
    - target: {fileID: 5706578220384293708, guid: 666a9c8be436ff74c816affba760c42e, type: 3}
      propertyPath: m_LocalEulerAnglesHint.x
      value: 0
      objectReference: {fileID: 0}
    - target: {fileID: 5706578220384293708, guid: 666a9c8be436ff74c816affba760c42e, type: 3}
      propertyPath: m_LocalEulerAnglesHint.y
      value: 0
      objectReference: {fileID: 0}
    - target: {fileID: 5706578220384293708, guid: 666a9c8be436ff74c816affba760c42e, type: 3}
      propertyPath: m_LocalEulerAnglesHint.z
      value: 0
      objectReference: {fileID: 0}
    - target: {fileID: 5706578220384293707, guid: 666a9c8be436ff74c816affba760c42e, type: 3}
      propertyPath: m_Name
      value: Building Tower I Variant I
      objectReference: {fileID: 0}
    - target: {fileID: 3494725342596900141, guid: 666a9c8be436ff74c816affba760c42e, type: 3}
      propertyPath: m_Materials.Array.data[0]
      value: 
      objectReference: {fileID: 2100000, guid: 6888b5229738bfd4294bfcd9025e49d9, type: 2}
    - target: {fileID: 5715794133765265948, guid: 666a9c8be436ff74c816affba760c42e, type: 3}
      propertyPath: m_Materials.Array.data[0]
      value: 
      objectReference: {fileID: 2100000, guid: 6888b5229738bfd4294bfcd9025e49d9, type: 2}
    - target: {fileID: 8364456377672328737, guid: 666a9c8be436ff74c816affba760c42e, type: 3}
      propertyPath: m_Materials.Array.data[0]
      value: 
      objectReference: {fileID: 2100000, guid: 6888b5229738bfd4294bfcd9025e49d9, type: 2}
    - target: {fileID: 3236651140270577299, guid: 666a9c8be436ff74c816affba760c42e, type: 3}
      propertyPath: m_Materials.Array.data[0]
      value: 
      objectReference: {fileID: 2100000, guid: 6888b5229738bfd4294bfcd9025e49d9, type: 2}
    - target: {fileID: 369682459151518816, guid: 666a9c8be436ff74c816affba760c42e, type: 3}
      propertyPath: m_Materials.Array.data[0]
      value: 
      objectReference: {fileID: 2100000, guid: 6888b5229738bfd4294bfcd9025e49d9, type: 2}
    - target: {fileID: 4187501468034453171, guid: 666a9c8be436ff74c816affba760c42e, type: 3}
      propertyPath: m_Materials.Array.data[0]
      value: 
      objectReference: {fileID: 2100000, guid: 6888b5229738bfd4294bfcd9025e49d9, type: 2}
    - target: {fileID: 4068236390383913799, guid: 666a9c8be436ff74c816affba760c42e, type: 3}
      propertyPath: m_Materials.Array.data[0]
      value: 
      objectReference: {fileID: 2100000, guid: 6888b5229738bfd4294bfcd9025e49d9, type: 2}
    - target: {fileID: 5082475347400733963, guid: 666a9c8be436ff74c816affba760c42e, type: 3}
      propertyPath: m_Materials.Array.data[0]
      value: 
      objectReference: {fileID: 2100000, guid: 6888b5229738bfd4294bfcd9025e49d9, type: 2}
    - target: {fileID: 3751058684763179808, guid: 666a9c8be436ff74c816affba760c42e, type: 3}
      propertyPath: m_Materials.Array.data[0]
      value: 
      objectReference: {fileID: 2100000, guid: 6888b5229738bfd4294bfcd9025e49d9, type: 2}
    - target: {fileID: 7825309870320756295, guid: 666a9c8be436ff74c816affba760c42e, type: 3}
      propertyPath: m_Materials.Array.data[0]
      value: 
      objectReference: {fileID: 2100000, guid: 6888b5229738bfd4294bfcd9025e49d9, type: 2}
    - target: {fileID: 7718028517131498393, guid: 666a9c8be436ff74c816affba760c42e, type: 3}
      propertyPath: m_Materials.Array.data[0]
      value: 
      objectReference: {fileID: 2100000, guid: 6888b5229738bfd4294bfcd9025e49d9, type: 2}
    - target: {fileID: 7907741546912885611, guid: 666a9c8be436ff74c816affba760c42e, type: 3}
      propertyPath: m_Materials.Array.data[0]
      value: 
      objectReference: {fileID: 2100000, guid: 6888b5229738bfd4294bfcd9025e49d9, type: 2}
    - target: {fileID: 8644668502080725339, guid: 666a9c8be436ff74c816affba760c42e, type: 3}
      propertyPath: m_Materials.Array.data[0]
      value: 
      objectReference: {fileID: 2100000, guid: 6888b5229738bfd4294bfcd9025e49d9, type: 2}
    - target: {fileID: 4793180809629318831, guid: 666a9c8be436ff74c816affba760c42e, type: 3}
      propertyPath: m_Materials.Array.data[0]
      value: 
      objectReference: {fileID: 2100000, guid: 6888b5229738bfd4294bfcd9025e49d9, type: 2}
    - target: {fileID: 5382085626782952124, guid: 666a9c8be436ff74c816affba760c42e, type: 3}
      propertyPath: m_Materials.Array.data[0]
      value: 
      objectReference: {fileID: 2100000, guid: 6888b5229738bfd4294bfcd9025e49d9, type: 2}
    - target: {fileID: 8514780666431073424, guid: 666a9c8be436ff74c816affba760c42e, type: 3}
      propertyPath: m_Materials.Array.data[0]
      value: 
      objectReference: {fileID: 2100000, guid: 6888b5229738bfd4294bfcd9025e49d9, type: 2}
    - target: {fileID: 6336841864205740408, guid: 666a9c8be436ff74c816affba760c42e, type: 3}
      propertyPath: m_Materials.Array.data[0]
      value: 
      objectReference: {fileID: 2100000, guid: 6888b5229738bfd4294bfcd9025e49d9, type: 2}
    - target: {fileID: 4929537429868123389, guid: 666a9c8be436ff74c816affba760c42e, type: 3}
      propertyPath: m_Materials.Array.data[0]
      value: 
      objectReference: {fileID: 2100000, guid: 6888b5229738bfd4294bfcd9025e49d9, type: 2}
    - target: {fileID: 8958895322607914432, guid: 666a9c8be436ff74c816affba760c42e, type: 3}
      propertyPath: m_Materials.Array.data[0]
      value: 
      objectReference: {fileID: 2100000, guid: 6888b5229738bfd4294bfcd9025e49d9, type: 2}
    - target: {fileID: 107798973998159200, guid: 666a9c8be436ff74c816affba760c42e, type: 3}
      propertyPath: m_Materials.Array.data[0]
      value: 
      objectReference: {fileID: 2100000, guid: 6888b5229738bfd4294bfcd9025e49d9, type: 2}
    - target: {fileID: 8876220461930979234, guid: 666a9c8be436ff74c816affba760c42e, type: 3}
      propertyPath: m_Materials.Array.data[0]
      value: 
      objectReference: {fileID: 2100000, guid: 6888b5229738bfd4294bfcd9025e49d9, type: 2}
    - target: {fileID: 6184518411472426682, guid: 666a9c8be436ff74c816affba760c42e, type: 3}
      propertyPath: m_Materials.Array.data[0]
      value: 
      objectReference: {fileID: 2100000, guid: 6888b5229738bfd4294bfcd9025e49d9, type: 2}
    - target: {fileID: 2057455929863968483, guid: 666a9c8be436ff74c816affba760c42e, type: 3}
      propertyPath: m_Materials.Array.data[0]
      value: 
      objectReference: {fileID: 2100000, guid: 6888b5229738bfd4294bfcd9025e49d9, type: 2}
    - target: {fileID: 1538678038982668402, guid: 666a9c8be436ff74c816affba760c42e, type: 3}
      propertyPath: m_Materials.Array.data[0]
      value: 
      objectReference: {fileID: 2100000, guid: 6888b5229738bfd4294bfcd9025e49d9, type: 2}
    - target: {fileID: 4661342850321942812, guid: 666a9c8be436ff74c816affba760c42e, type: 3}
      propertyPath: m_Materials.Array.data[0]
      value: 
      objectReference: {fileID: 2100000, guid: 6888b5229738bfd4294bfcd9025e49d9, type: 2}
    - target: {fileID: 9074133972169650058, guid: 666a9c8be436ff74c816affba760c42e, type: 3}
      propertyPath: m_Materials.Array.data[0]
      value: 
      objectReference: {fileID: 2100000, guid: 6888b5229738bfd4294bfcd9025e49d9, type: 2}
    - target: {fileID: 7884968760201712154, guid: 666a9c8be436ff74c816affba760c42e, type: 3}
      propertyPath: m_Materials.Array.data[0]
      value: 
      objectReference: {fileID: 2100000, guid: 6888b5229738bfd4294bfcd9025e49d9, type: 2}
    - target: {fileID: 806669627616621139, guid: 666a9c8be436ff74c816affba760c42e, type: 3}
      propertyPath: m_Materials.Array.data[0]
      value: 
      objectReference: {fileID: 2100000, guid: 6888b5229738bfd4294bfcd9025e49d9, type: 2}
    - target: {fileID: 6479096454232355846, guid: 666a9c8be436ff74c816affba760c42e, type: 3}
      propertyPath: m_Materials.Array.data[0]
      value: 
      objectReference: {fileID: 2100000, guid: 6888b5229738bfd4294bfcd9025e49d9, type: 2}
    - target: {fileID: 2361883158048233793, guid: 666a9c8be436ff74c816affba760c42e, type: 3}
      propertyPath: m_Materials.Array.data[0]
      value: 
      objectReference: {fileID: 2100000, guid: 6888b5229738bfd4294bfcd9025e49d9, type: 2}
    - target: {fileID: 2005640283603460911, guid: 666a9c8be436ff74c816affba760c42e, type: 3}
      propertyPath: m_Materials.Array.data[0]
      value: 
      objectReference: {fileID: 2100000, guid: 6888b5229738bfd4294bfcd9025e49d9, type: 2}
    - target: {fileID: 2142495318102428647, guid: 666a9c8be436ff74c816affba760c42e, type: 3}
      propertyPath: m_Materials.Array.data[0]
      value: 
      objectReference: {fileID: 2100000, guid: 6888b5229738bfd4294bfcd9025e49d9, type: 2}
    - target: {fileID: 1155332576743527165, guid: 666a9c8be436ff74c816affba760c42e, type: 3}
      propertyPath: m_Materials.Array.data[0]
      value: 
      objectReference: {fileID: 2100000, guid: 6888b5229738bfd4294bfcd9025e49d9, type: 2}
    - target: {fileID: 4680094046903152570, guid: 666a9c8be436ff74c816affba760c42e, type: 3}
      propertyPath: m_Materials.Array.data[0]
      value: 
      objectReference: {fileID: 2100000, guid: 6888b5229738bfd4294bfcd9025e49d9, type: 2}
    - target: {fileID: 1203581455330543835, guid: 666a9c8be436ff74c816affba760c42e, type: 3}
      propertyPath: m_Materials.Array.data[0]
      value: 
      objectReference: {fileID: 2100000, guid: 6888b5229738bfd4294bfcd9025e49d9, type: 2}
    - target: {fileID: 3122203993255133430, guid: 666a9c8be436ff74c816affba760c42e, type: 3}
      propertyPath: m_Materials.Array.data[0]
      value: 
      objectReference: {fileID: 2100000, guid: 6888b5229738bfd4294bfcd9025e49d9, type: 2}
    m_RemovedComponents: []
  m_SourcePrefab: {fileID: 100100000, guid: 666a9c8be436ff74c816affba760c42e, type: 3}
