%YAML 1.1
%TAG !u! tag:unity3d.com,2011:
--- !u!1001 &8428134502242767793
PrefabInstance:
  m_ObjectHideFlags: 0
  serializedVersion: 2
  m_Modification:
    m_TransformParent: {fileID: 0}
    m_Modifications:
    - target: {fileID: 8748955113833297526, guid: 2c50f3a5390ad7a44a6883f382710064, type: 3}
      propertyPath: m_LocalPosition.x
      value: -0.61
      objectReference: {fileID: 0}
    - target: {fileID: 8748955113833297526, guid: 2c50f3a5390ad7a44a6883f382710064, type: 3}
      propertyPath: m_LocalPosition.y
      value: 1.73
      objectReference: {fileID: 0}
    - target: {fileID: 8748955113833297526, guid: 2c50f3a5390ad7a44a6883f382710064, type: 3}
      propertyPath: m_LocalPosition.z
      value: -10
      objectReference: {fileID: 0}
    - target: {fileID: 8748955113833297526, guid: 2c50f3a5390ad7a44a6883f382710064, type: 3}
      propertyPath: m_LocalRotation.x
      value: 0
      objectReference: {fileID: 0}
    - target: {fileID: 8748955113833297526, guid: 2c50f3a5390ad7a44a6883f382710064, type: 3}
      propertyPath: m_LocalRotation.y
      value: 0
      objectReference: {fileID: 0}
    - target: {fileID: 8748955113833297526, guid: 2c50f3a5390ad7a44a6883f382710064, type: 3}
      propertyPath: m_LocalRotation.z
      value: 0
      objectReference: {fileID: 0}
    - target: {fileID: 8748955113833297526, guid: 2c50f3a5390ad7a44a6883f382710064, type: 3}
      propertyPath: m_LocalRotation.w
      value: 1
      objectReference: {fileID: 0}
    - target: {fileID: 8748955113833297526, guid: 2c50f3a5390ad7a44a6883f382710064, type: 3}
      propertyPath: m_RootOrder
      value: 0
      objectReference: {fileID: 0}
    - target: {fileID: 8748955113833297526, guid: 2c50f3a5390ad7a44a6883f382710064, type: 3}
      propertyPath: m_LocalEulerAnglesHint.x
      value: 0
      objectReference: {fileID: 0}
    - target: {fileID: 8748955113833297526, guid: 2c50f3a5390ad7a44a6883f382710064, type: 3}
      propertyPath: m_LocalEulerAnglesHint.y
      value: 0
      objectReference: {fileID: 0}
    - target: {fileID: 8748955113833297526, guid: 2c50f3a5390ad7a44a6883f382710064, type: 3}
      propertyPath: m_LocalEulerAnglesHint.z
      value: 0
      objectReference: {fileID: 0}
    - target: {fileID: 6737551572070621054, guid: 2c50f3a5390ad7a44a6883f382710064, type: 3}
      propertyPath: m_Name
      value: DialogBoxNarrator
      objectReference: {fileID: 0}
    - target: {fileID: 5044814709263688637, guid: 2c50f3a5390ad7a44a6883f382710064, type: 3}
      propertyPath: m_Text
      value: "Try to avoid the \nobstacles !"
      objectReference: {fileID: 0}
    m_RemovedComponents: []
  m_SourcePrefab: {fileID: 100100000, guid: 2c50f3a5390ad7a44a6883f382710064, type: 3}
