%YAML 1.1
%TAG !u! tag:unity3d.com,2011:
--- !u!1001 &2767322057921705823
PrefabInstance:
  m_ObjectHideFlags: 0
  serializedVersion: 2
  m_Modification:
    m_TransformParent: {fileID: 0}
    m_Modifications:
    - target: {fileID: 4647780884697408879, guid: 80a33995d8791c143adbc3f018f759de, type: 3}
      propertyPath: m_LocalPosition.x
      value: -0.61
      objectReference: {fileID: 0}
    - target: {fileID: 4647780884697408879, guid: 80a33995d8791c143adbc3f018f759de, type: 3}
      propertyPath: m_LocalPosition.y
      value: 1.73
      objectReference: {fileID: 0}
    - target: {fileID: 4647780884697408879, guid: 80a33995d8791c143adbc3f018f759de, type: 3}
      propertyPath: m_LocalPosition.z
      value: -10
      objectReference: {fileID: 0}
    - target: {fileID: 4647780884697408879, guid: 80a33995d8791c143adbc3f018f759de, type: 3}
      propertyPath: m_LocalRotation.x
      value: 0
      objectReference: {fileID: 0}
    - target: {fileID: 4647780884697408879, guid: 80a33995d8791c143adbc3f018f759de, type: 3}
      propertyPath: m_LocalRotation.y
      value: 0
      objectReference: {fileID: 0}
    - target: {fileID: 4647780884697408879, guid: 80a33995d8791c143adbc3f018f759de, type: 3}
      propertyPath: m_LocalRotation.z
      value: 0
      objectReference: {fileID: 0}
    - target: {fileID: 4647780884697408879, guid: 80a33995d8791c143adbc3f018f759de, type: 3}
      propertyPath: m_LocalRotation.w
      value: 1
      objectReference: {fileID: 0}
    - target: {fileID: 4647780884697408879, guid: 80a33995d8791c143adbc3f018f759de, type: 3}
      propertyPath: m_RootOrder
      value: 0
      objectReference: {fileID: 0}
    - target: {fileID: 4647780884697408879, guid: 80a33995d8791c143adbc3f018f759de, type: 3}
      propertyPath: m_LocalEulerAnglesHint.x
      value: 0
      objectReference: {fileID: 0}
    - target: {fileID: 4647780884697408879, guid: 80a33995d8791c143adbc3f018f759de, type: 3}
      propertyPath: m_LocalEulerAnglesHint.y
      value: 0
      objectReference: {fileID: 0}
    - target: {fileID: 4647780884697408879, guid: 80a33995d8791c143adbc3f018f759de, type: 3}
      propertyPath: m_LocalEulerAnglesHint.z
      value: 0
      objectReference: {fileID: 0}
    - target: {fileID: 7235634447583235175, guid: 80a33995d8791c143adbc3f018f759de, type: 3}
      propertyPath: m_Name
      value: Good
      objectReference: {fileID: 0}
    - target: {fileID: 9216753506725163172, guid: 80a33995d8791c143adbc3f018f759de, type: 3}
      propertyPath: m_Text
      value: Good !
      objectReference: {fileID: 0}
    - target: {fileID: 7461387869396036685, guid: 80a33995d8791c143adbc3f018f759de, type: 3}
      propertyPath: m_SizeDelta.x
      value: 600
      objectReference: {fileID: 0}
    - target: {fileID: 1572359768849745026, guid: 80a33995d8791c143adbc3f018f759de, type: 3}
      propertyPath: m_LocalPosition.z
      value: 0
      objectReference: {fileID: 0}
    m_RemovedComponents: []
  m_SourcePrefab: {fileID: 100100000, guid: 80a33995d8791c143adbc3f018f759de, type: 3}
